Estiamcion
…
claves<-c("P001","P002","P003","P011","P023","P024","P054","P055","P056", "P059","P060","P061","P063","P068","P060","P070","P071","P072","P073","P074","P075","P076","P077","P078","P079","P080")
ingresos_e16a<-ingresos_acu_e16(a,claves) 
ingresos_e16a

## # A tibble: 104,236 x 6
##    folioviv   foliohog numren claves_a  ing_tri_t ing_men_p
##    <chr>      <chr>    <chr>  <chr>         <dbl>     <dbl>
##  1 0100003801 1        01     P001         53115.    17705.
##  2 0100003801 1        02     P001         44262.    14754.
##  3 0100003802 1        01     P001         47213.    15738.
##  4 0100003802 1        02     P001         44262.    14754.
##  5 0100003803 1        01     P001         82623.    27541.
##  6 0100003804 1        01     P001         29508.     9836.
##  7 0100003804 1        02     P001          3934.     1311.
##  8 0100003805 1        01     P001         35410.    11803.
##  9 0100010401 1        03     P063,P001     8560.     2853.
## 10 0100010401 1        04     P001         20837.     6946.
## # … with 104,226 more rows
…
## [1] 1075

saveRDS(ingreso_hijog_e16_emovif, file="Datos/ingreso_hij_f_emovi.Rda")

4 Hijos con ingreso

hijos_emovi_hp <- readRDS(file="Datos/ingreso_hij_f_emovi.Rda")

nrow(hijos_emovi_hp)

## [1] 1075

hijos_emovi_hp 

## # A tibble: 1,075 x 10
##    id_hijo id_ho mov   regionh  edad ing_men_p_h cohort estrato estado sexo 
##    <chr>   <int> <chr> <fct>   <dbl> <list>       <dbl>   <dbl> <fct>  <fct>
##  1 1           7 peor  3          25 <dbl [24]>       3       2 1      1    
##  2 2          34 mejor 3          35 <dbl [43]>       1       1 1      1    
##  3 3          66 peor  3          40 <dbl [9]>        2       1 1      2    
##  4 4          81 peor  3          28 <dbl [18]>       3       2 1      2    
##  5 5          97 mejor 3          37 <dbl [24]>       1       1 1      2    
##  6 6         104 mejor 3          29 <dbl [30]>       2       1 1      2    
##  7 7         115 mejor 3          35 <dbl [14]>       2       1 1      2    
##  8 8         122 igual 3          30 <dbl [74]>       1       1 1      1    
##  9 9         152 igual 3          40 <dbl [9]>        3       2 1      1    
## 10 10        160 mejor 3          36 <dbl [16]>       3       2 1      1    
## # … with 1,065 more rows
…
