Módulo de Movilidad Social Intergeneracional (MMSI) 2016
…
skey<-data_mmsi%>%
  select(P12_2,P12_1)%>%
  data_to_sankey()

skey

## # A tibble: 100 x 4
##    from  to    weight id   
##    <chr> <chr>  <int> <chr>
##  1 01    01      1266 0101 
##  2 01    02       897 0102 
##  3 01    03       952 0103 
##  4 01    04       581 0104 
##  5 01    05       732 0105 
##  6 01    06       197 0106 
##  7 01    07        93 0107 
##  8 01    08        57 0108 
##  9 01    09        15 0109 
## 10 01    10        30 0110 
## # … with 90 more rows
…
skey<-data_mmsi%>%
  filter(P1_1==1)%>%
  select(P12_2,P12_1)%>%
  data_to_sankey()

skey

## # A tibble: 100 x 4
##    from  to    weight id   
##    <chr> <chr>  <int> <chr>
##  1 01    01       517 0101 
##  2 01    02       361 0102 
##  3 01    03       373 0103 
##  4 01    04       211 0104 
##  5 01    05       260 0105 
##  6 01    06        76 0106 
##  7 01    07        25 0107 
##  8 01    08        17 0108 
##  9 01    09         2 0109 
## 10 01    10        13 0110 
## # … with 90 more rows
…
skey<-data_mmsi%>%
  filter(P1_1==2)%>%
  select(P12_2,P12_1)%>%
  data_to_sankey()

skey

## # A tibble: 100 x 4
##    from  to    weight id   
##    <chr> <chr>  <int> <chr>
##  1 01    01       749 0101 
##  2 01    02       536 0102 
##  3 01    03       579 0103 
##  4 01    04       370 0104 
##  5 01    05       472 0105 
##  6 01    06       121 0106 
##  7 01    07        68 0107 
##  8 01    08        40 0108 
##  9 01    09        13 0109 
## 10 01    10        17 0110 
## # … with 90 more rows
…
